module bitbucket.org/libertywireless/roaming-service

require (
	cloud.google.com/go v0.26.0
	github.com/PuerkitoBio/purell v1.1.0
	github.com/PuerkitoBio/urlesc v0.0.0-20170810143723-de5bf2ad4578
	github.com/alecthomas/template v0.0.0-20160405071501-a0175ee3bccc
	github.com/buger/jsonparser v0.0.0-20180318095312-2cac668e8456
	github.com/davecgh/go-spew v1.1.1
	github.com/dgrijalva/jwt-go v3.2.0+incompatible
	github.com/fsnotify/fsnotify v1.4.7
	github.com/globalsign/mgo v0.0.0-20180905125535-1ca0a4f7cbcb
	github.com/go-chi/chi v3.3.2+incompatible
	github.com/go-chi/cors v1.0.0
	github.com/go-fsnotify/fsnotify v0.0.0-20180321022601-755488143dae // indirect
	github.com/go-openapi/jsonpointer v0.17.2
	github.com/go-openapi/jsonreference v0.17.2
	github.com/go-openapi/spec v0.17.2
	github.com/go-openapi/swag v0.17.2
	github.com/go-redis/redis v6.13.2+incompatible
	github.com/go-stack/stack v1.7.0
	github.com/golang/protobuf v1.2.0
	github.com/golang/snappy v0.0.0-20180518054509-2e65f85255db
	github.com/hashicorp/hcl v0.0.0-20180404174102-ef8a98b0bbce
	github.com/magiconair/properties v1.8.0
	github.com/mailru/easyjson v0.0.0-20180823135443-60711f1a8329
	github.com/mitchellh/mapstructure v0.0.0-20180511142126-bb74f1db0675
	github.com/mongodb/mongo-go-driver v0.0.9
	github.com/newrelic/go-agent v2.0.0+incompatible
	github.com/pelletier/go-toml v1.2.0
	github.com/pmezard/go-difflib v1.0.0
	github.com/satori/go.uuid v1.2.0
	github.com/sirupsen/logrus v1.0.5
	github.com/spf13/afero v1.1.2
	github.com/spf13/cast v1.2.0
	github.com/spf13/jwalterweatherman v0.0.0-20180109140146-7c0cea34c8ec
	github.com/spf13/pflag v1.0.1
	github.com/spf13/viper v1.0.2
	github.com/stretchr/objx v0.1.1
	github.com/stretchr/testify v1.2.2
	github.com/swaggo/files v0.0.0-20180215091130-49c8a91ea3fa
	github.com/swaggo/http-swagger v0.0.0-20180407044326-e030f0899372
	github.com/swaggo/swag v1.3.2
	golang.org/x/crypto v0.0.0-20180621125126-a49355c7e3f8
	golang.org/x/net v0.0.0-20181005035420-146acd28ed58
	golang.org/x/oauth2 v0.0.0-20180821212333-d2e6202438be
	golang.org/x/sync v0.0.0-20180314180146-1d60e4601c6f
	golang.org/x/sys v0.0.0-20180627142611-7138fd3d9dc8
	golang.org/x/text v0.3.0
	google.golang.org/appengine v1.1.0
	gopkg.in/mgo.v2 v2.0.0-20180705113604-9856a29383ce
	gopkg.in/validator.v2 v2.0.0-20180514200540-135c24b11c19
	gopkg.in/yaml.v2 v2.2.1
)
