{
    "swagger": "2.0",
    "info": {
        "description": "User Service API documentation.",
        "title": "User Service API",
        "contact": {
            "name": "API Support",
            "email": "roaming-service-dev@circles.asia"
        },
        "license": {},
        "version": "1.0"
    },
    "host": "localhost:3000",
    "basePath": "/",
    "paths": {
        "/guests/create": {
            "post": {
                "description": "create guest user without email or phone no.",
                "consumes": [
                    "application/json"
                ],
                "produces": [
                    "application/json"
                ],
                "tags": [
                    "guest user"
                ],
                "summary": "create a guest user.",
                "parameters": [
                    {
                        "description": "Request payload",
                        "name": "payload",
                        "in": "body",
                        "required": true,
                        "schema": {
                            "type": "object",
                            "$ref": "#/definitions/model.GuestCreateRequestModel"
                        }
                    }
                ],
                "responses": {
                    "200": {
                        "description": "OK",
                        "schema": {
                            "type": "object",
                            "$ref": "#/definitions/model.UserModel"
                        }
                    },
                    "400": {
                        "description": "Bad Request",
                        "schema": {
                            "type": "object",
                            "$ref": "#/definitions/model.ErrorResponse"
                        }
                    },
                    "404": {
                        "description": "Not Found",
                        "schema": {
                            "type": "object",
                            "$ref": "#/definitions/model.ErrorResponse"
                        }
                    },
                    "500": {
                        "description": "Internal Server Error",
                        "schema": {
                            "type": "object",
                            "$ref": "#/definitions/model.ErrorResponse"
                        }
                    }
                }
            }
        },
        "/user/migrate": {
            "post": {
                "description": "create existing users from other system to user service.",
                "consumes": [
                    "application/json"
                ],
                "produces": [
                    "application/json"
                ],
                "tags": [
                    "user"
                ],
                "summary": "migrate user data",
                "parameters": [
                    {
                        "description": "Request Payload",
                        "name": "payload",
                        "in": "body",
                        "required": true,
                        "schema": {
                            "type": "object",
                            "$ref": "#/definitions/model.MigrateUserModel"
                        }
                    }
                ],
                "responses": {
                    "200": {
                        "description": "OK",
                        "schema": {
                            "type": "object",
                            "$ref": "#/definitions/model.UserModel"
                        }
                    },
                    "400": {
                        "description": "Bad Request",
                        "schema": {
                            "type": "object",
                            "$ref": "#/definitions/model.ErrorResponse"
                        }
                    },
                    "404": {
                        "description": "Not Found",
                        "schema": {
                            "type": "object",
                            "$ref": "#/definitions/model.ErrorResponse"
                        }
                    },
                    "500": {
                        "description": "Internal Server Error",
                        "schema": {
                            "type": "object",
                            "$ref": "#/definitions/model.ErrorResponse"
                        }
                    }
                }
            }
        },
        "/users/auth/fb": {
            "get": {
                "description": "get user information from facebook and create user.",
                "consumes": [
                    "application/json"
                ],
                "produces": [
                    "application/json"
                ],
                "tags": [
                    "oauth"
                ],
                "summary": "register with facebook",
                "parameters": [
                    {
                        "type": "string",
                        "description": "Facebook Token",
                        "name": "token",
                        "in": "path",
                        "required": true
                    },
                    {
                        "type": "string",
                        "description": "Device ID",
                        "name": "device_id",
                        "in": "path",
                        "required": true
                    },
                    {
                        "type": "string",
                        "description": "Device Type",
                        "name": "device_type",
                        "in": "path",
                        "required": true
                    },
                    {
                        "type": "integer",
                        "description": "Login Duration should be at least 60 mins",
                        "name": "login_duration",
                        "in": "path",
                        "required": true
                    }
                ],
                "responses": {
                    "200": {
                        "description": "OK",
                        "schema": {
                            "type": "object",
                            "$ref": "#/definitions/model.UserLoginResponseModel"
                        }
                    },
                    "400": {
                        "description": "Bad Request",
                        "schema": {
                            "type": "object",
                            "$ref": "#/definitions/model.ErrorResponse"
                        }
                    },
                    "404": {
                        "description": "Not Found",
                        "schema": {
                            "type": "object",
                            "$ref": "#/definitions/model.ErrorResponse"
                        }
                    },
                    "500": {
                        "description": "Internal Server Error",
                        "schema": {
                            "type": "object",
                            "$ref": "#/definitions/model.ErrorResponse"
                        }
                    }
                }
            }
        },
        "/users/auth/google": {
            "get": {
                "description": "get user information from google and create user.",
                "consumes": [
                    "application/json"
                ],
                "produces": [
                    "application/json"
                ],
                "tags": [
                    "oauth"
                ],
                "summary": "register with google",
                "parameters": [
                    {
                        "type": "string",
                        "description": "Google Token",
                        "name": "token",
                        "in": "path",
                        "required": true
                    },
                    {
                        "type": "string",
                        "description": "Device ID",
                        "name": "device_id",
                        "in": "path",
                        "required": true
                    },
                    {
                        "type": "string",
                        "description": "Device Type",
                        "name": "device_type",
                        "in": "path",
                        "required": true
                    },
                    {
                        "type": "integer",
                        "description": "Login Duration should be at least 60 mins",
                        "name": "login_duration",
                        "in": "path",
                        "required": true
                    }
                ],
                "responses": {
                    "200": {
                        "description": "OK",
                        "schema": {
                            "type": "object",
                            "$ref": "#/definitions/model.UserLoginResponseModel"
                        }
                    },
                    "400": {
                        "description": "Bad Request",
                        "schema": {
                            "type": "object",
                            "$ref": "#/definitions/model.ErrorResponse"
                        }
                    },
                    "404": {
                        "description": "Not Found",
                        "schema": {
                            "type": "object",
                            "$ref": "#/definitions/model.ErrorResponse"
                        }
                    },
                    "500": {
                        "description": "Internal Server Error",
                        "schema": {
                            "type": "object",
                            "$ref": "#/definitions/model.ErrorResponse"
                        }
                    }
                }
            }
        },
        "/users/auth/otp/send": {
            "post": {
                "description": "send OTP to user's email or phone.",
                "consumes": [
                    "application/json"
                ],
                "produces": [
                    "application/json"
                ],
                "tags": [
                    "OTP"
                ],
                "summary": "send OTP",
                "parameters": [
                    {
                        "description": "Request payload",
                        "name": "payload",
                        "in": "body",
                        "required": true,
                        "schema": {
                            "type": "object",
                            "$ref": "#/definitions/model.OtpRequestModel"
                        }
                    }
                ],
                "responses": {
                    "200": {
                        "description": "OK",
                        "schema": {
                            "type": "object",
                            "$ref": "#/definitions/model.OtpResponseModel"
                        }
                    },
                    "400": {
                        "description": "Bad Request",
                        "schema": {
                            "type": "object",
                            "$ref": "#/definitions/model.ErrorResponse"
                        }
                    },
                    "404": {
                        "description": "Not Found",
                        "schema": {
                            "type": "object",
                            "$ref": "#/definitions/model.ErrorResponse"
                        }
                    },
                    "500": {
                        "description": "Internal Server Error",
                        "schema": {
                            "type": "object",
                            "$ref": "#/definitions/model.ErrorResponse"
                        }
                    }
                }
            }
        },
        "/users/auth/otp/validate": {
            "post": {
                "description": "validate OTP code and Auth ID from user.",
                "consumes": [
                    "application/json"
                ],
                "produces": [
                    "application/json"
                ],
                "tags": [
                    "OTP"
                ],
                "summary": "validate OTP code",
                "parameters": [
                    {
                        "description": "Request payload",
                        "name": "payload",
                        "in": "body",
                        "required": true,
                        "schema": {
                            "type": "object",
                            "$ref": "#/definitions/model.OtpValidationModel"
                        }
                    }
                ],
                "responses": {
                    "200": {
                        "description": "OK",
                        "schema": {
                            "type": "object",
                            "$ref": "#/definitions/model.OtpAuthenticationModel"
                        }
                    },
                    "400": {
                        "description": "Bad Request",
                        "schema": {
                            "type": "object",
                            "$ref": "#/definitions/model.ErrorResponse"
                        }
                    },
                    "404": {
                        "description": "Not Found",
                        "schema": {
                            "type": "object",
                            "$ref": "#/definitions/model.ErrorResponse"
                        }
                    },
                    "500": {
                        "description": "Internal Server Error",
                        "schema": {
                            "type": "object",
                            "$ref": "#/definitions/model.ErrorResponse"
                        }
                    }
                }
            }
        },
        "/users/auth/otp/{auth_id}": {
            "get": {
                "description": "retrieve OTP code by Auth ID.",
                "consumes": [
                    "application/json"
                ],
                "produces": [
                    "application/json"
                ],
                "tags": [
                    "OTP"
                ],
                "summary": "get OTP code",
                "parameters": [
                    {
                        "type": "string",
                        "description": "Auth ID",
                        "name": "auth_id",
                        "in": "path",
                        "required": true
                    }
                ],
                "responses": {
                    "200": {
                        "description": "OK",
                        "schema": {
                            "type": "object",
                            "$ref": "#/definitions/model.GetOtpResponseModel"
                        }
                    },
                    "400": {
                        "description": "Bad Request",
                        "schema": {
                            "type": "object",
                            "$ref": "#/definitions/model.ErrorResponse"
                        }
                    },
                    "404": {
                        "description": "Not Found",
                        "schema": {
                            "type": "object",
                            "$ref": "#/definitions/model.ErrorResponse"
                        }
                    },
                    "500": {
                        "description": "Internal Server Error",
                        "schema": {
                            "type": "object",
                            "$ref": "#/definitions/model.ErrorResponse"
                        }
                    }
                }
            }
        },
        "/users/hard-delete": {
            "delete": {
                "description": "delete user from database.",
                "consumes": [
                    "application/json"
                ],
                "produces": [
                    "application/json"
                ],
                "tags": [
                    "user"
                ],
                "summary": "hard delete user",
                "parameters": [
                    {
                        "description": "Request Payload",
                        "name": "payload",
                        "in": "body",
                        "required": true,
                        "schema": {
                            "type": "object",
                            "$ref": "#/definitions/model.DeleteUserRequest"
                        }
                    }
                ],
                "responses": {
                    "202": {},
                    "400": {
                        "description": "Bad Request",
                        "schema": {
                            "type": "object",
                            "$ref": "#/definitions/model.ErrorResponse"
                        }
                    },
                    "404": {
                        "description": "Not Found",
                        "schema": {
                            "type": "object",
                            "$ref": "#/definitions/model.ErrorResponse"
                        }
                    },
                    "500": {
                        "description": "Internal Server Error",
                        "schema": {
                            "type": "object",
                            "$ref": "#/definitions/model.ErrorResponse"
                        }
                    }
                }
            }
        },
        "/users/login": {
            "post": {
                "description": "user login with email or phone number. This api will return auth_token if success.",
                "consumes": [
                    "application/json"
                ],
                "produces": [
                    "application/json"
                ],
                "tags": [
                    "login"
                ],
                "summary": "user login",
                "parameters": [
                    {
                        "description": "Request payload",
                        "name": "payload",
                        "in": "body",
                        "required": true,
                        "schema": {
                            "type": "object",
                            "$ref": "#/definitions/model.UserLoginRequestModel"
                        }
                    }
                ],
                "responses": {
                    "200": {
                        "description": "OK",
                        "schema": {
                            "type": "object",
                            "$ref": "#/definitions/model.UserLoginResponseModel"
                        }
                    },
                    "400": {
                        "description": "Bad Request",
                        "schema": {
                            "type": "object",
                            "$ref": "#/definitions/model.ErrorResponse"
                        }
                    },
                    "404": {
                        "description": "Not Found",
                        "schema": {
                            "type": "object",
                            "$ref": "#/definitions/model.ErrorResponse"
                        }
                    },
                    "500": {
                        "description": "Internal Server Error",
                        "schema": {
                            "type": "object",
                            "$ref": "#/definitions/model.ErrorResponse"
                        }
                    }
                }
            }
        },
        "/users/login/otp": {
            "post": {
                "description": "This api will validate OTP code and Auth ID. It will return auth_token, if success.",
                "consumes": [
                    "application/json"
                ],
                "produces": [
                    "application/json"
                ],
                "tags": [
                    "login"
                ],
                "summary": "user login with OTP",
                "parameters": [
                    {
                        "description": "Request payload",
                        "name": "payload",
                        "in": "body",
                        "required": true,
                        "schema": {
                            "type": "object",
                            "$ref": "#/definitions/model.OtpValidationModel"
                        }
                    }
                ],
                "responses": {
                    "200": {
                        "description": "OK",
                        "schema": {
                            "type": "object",
                            "$ref": "#/definitions/model.UserLoginResponseModel"
                        }
                    },
                    "400": {
                        "description": "Bad Request",
                        "schema": {
                            "type": "object",
                            "$ref": "#/definitions/model.ErrorResponse"
                        }
                    },
                    "404": {
                        "description": "Not Found",
                        "schema": {
                            "type": "object",
                            "$ref": "#/definitions/model.ErrorResponse"
                        }
                    },
                    "500": {
                        "description": "Internal Server Error",
                        "schema": {
                            "type": "object",
                            "$ref": "#/definitions/model.ErrorResponse"
                        }
                    }
                }
            }
        },
        "/users/login/token": {
            "get": {
                "description": "retrieve user login by user ID. for internal use only.",
                "consumes": [
                    "application/json"
                ],
                "produces": [
                    "application/json"
                ],
                "tags": [
                    "login"
                ],
                "summary": "retrieve auth_token by user ID",
                "parameters": [
                    {
                        "type": "string",
                        "description": "User ID",
                        "name": "user_id",
                        "in": "query",
                        "required": true
                    },
                    {
                        "type": "string",
                        "description": "Device ID",
                        "name": "device_id",
                        "in": "query",
                        "required": true
                    },
                    {
                        "type": "string",
                        "description": "Device Type",
                        "name": "device_type",
                        "in": "query",
                        "required": true
                    }
                ],
                "responses": {
                    "200": {
                        "description": "OK",
                        "schema": {
                            "type": "object",
                            "$ref": "#/definitions/model.UserLoginResponseModel"
                        }
                    },
                    "400": {
                        "description": "Bad Request",
                        "schema": {
                            "type": "object",
                            "$ref": "#/definitions/model.ErrorResponse"
                        }
                    },
                    "404": {
                        "description": "Not Found",
                        "schema": {
                            "type": "object",
                            "$ref": "#/definitions/model.ErrorResponse"
                        }
                    },
                    "500": {
                        "description": "Internal Server Error",
                        "schema": {
                            "type": "object",
                            "$ref": "#/definitions/model.ErrorResponse"
                        }
                    }
                }
            }
        },
        "/users/login/token/validate": {
            "post": {
                "description": "validate auth_token is expired, login or invalid.",
                "consumes": [
                    "application/json"
                ],
                "produces": [
                    "application/json"
                ],
                "tags": [
                    "login"
                ],
                "summary": "check auth token status",
                "parameters": [
                    {
                        "description": "Request payload",
                        "name": "payload",
                        "in": "body",
                        "required": true,
                        "schema": {
                            "type": "object",
                            "$ref": "#/definitions/model.ValidateTokenRequest"
                        }
                    }
                ],
                "responses": {
                    "200": {},
                    "400": {
                        "description": "Bad Request",
                        "schema": {
                            "type": "object",
                            "$ref": "#/definitions/model.ErrorResponse"
                        }
                    },
                    "404": {
                        "description": "Not Found",
                        "schema": {
                            "type": "object",
                            "$ref": "#/definitions/model.ErrorResponse"
                        }
                    },
                    "500": {
                        "description": "Internal Server Error",
                        "schema": {
                            "type": "object",
                            "$ref": "#/definitions/model.ErrorResponse"
                        }
                    }
                }
            }
        },
        "/users/login/{user_id}/invalidate_token": {
            "post": {
                "description": "validate auth_token and remove login entry for that device.",
                "consumes": [
                    "application/json"
                ],
                "produces": [
                    "application/json"
                ],
                "tags": [
                    "login"
                ],
                "summary": "logout",
                "parameters": [
                    {
                        "description": "Request payload",
                        "name": "payload",
                        "in": "body",
                        "required": true,
                        "schema": {
                            "type": "object",
                            "$ref": "#/definitions/model.InvalidateTokenRequestModel"
                        }
                    },
                    {
                        "type": "string",
                        "description": "User ID",
                        "name": "user_id",
                        "in": "path",
                        "required": true
                    }
                ],
                "responses": {
                    "200": {},
                    "400": {
                        "description": "Bad Request",
                        "schema": {
                            "type": "object",
                            "$ref": "#/definitions/model.ErrorResponse"
                        }
                    },
                    "404": {
                        "description": "Not Found",
                        "schema": {
                            "type": "object",
                            "$ref": "#/definitions/model.ErrorResponse"
                        }
                    },
                    "500": {
                        "description": "Internal Server Error",
                        "schema": {
                            "type": "object",
                            "$ref": "#/definitions/model.ErrorResponse"
                        }
                    }
                }
            }
        },
        "/users/login/{user_id}/refresh_token": {
            "post": {
                "description": "validate old auth_token and update expired time and login time for new auth_token.",
                "consumes": [
                    "application/json"
                ],
                "produces": [
                    "application/json"
                ],
                "tags": [
                    "login"
                ],
                "summary": "refresh auth token",
                "parameters": [
                    {
                        "description": "Request payload",
                        "name": "payload",
                        "in": "body",
                        "required": true,
                        "schema": {
                            "type": "object",
                            "$ref": "#/definitions/model.RefreshTokenRequestModel"
                        }
                    },
                    {
                        "type": "string",
                        "description": "User ID",
                        "name": "user_id",
                        "in": "path",
                        "required": true
                    }
                ],
                "responses": {
                    "200": {
                        "description": "OK",
                        "schema": {
                            "type": "object",
                            "$ref": "#/definitions/model.UserLoginResponseModel"
                        }
                    },
                    "400": {
                        "description": "Bad Request",
                        "schema": {
                            "type": "object",
                            "$ref": "#/definitions/model.ErrorResponse"
                        }
                    },
                    "404": {
                        "description": "Not Found",
                        "schema": {
                            "type": "object",
                            "$ref": "#/definitions/model.ErrorResponse"
                        }
                    },
                    "500": {
                        "description": "Internal Server Error",
                        "schema": {
                            "type": "object",
                            "$ref": "#/definitions/model.ErrorResponse"
                        }
                    }
                }
            }
        },
        "/users/password/forgot": {
            "post": {
                "description": "This API will validate AuthID and OTP code. If validation is success, it will update new password to the system. user/otp/send API is needed before using this API.",
                "consumes": [
                    "application/json"
                ],
                "produces": [
                    "application/json"
                ],
                "tags": [
                    "user"
                ],
                "summary": "forgot password",
                "parameters": [
                    {
                        "description": "Request Payload",
                        "name": "payload",
                        "in": "body",
                        "required": true,
                        "schema": {
                            "type": "object",
                            "$ref": "#/definitions/model.ForgotPasswordRequestModel"
                        }
                    }
                ],
                "responses": {
                    "200": {},
                    "400": {
                        "description": "Bad Request",
                        "schema": {
                            "type": "object",
                            "$ref": "#/definitions/model.ErrorResponse"
                        }
                    },
                    "404": {
                        "description": "Not Found",
                        "schema": {
                            "type": "object",
                            "$ref": "#/definitions/model.ErrorResponse"
                        }
                    },
                    "500": {
                        "description": "Internal Server Error",
                        "schema": {
                            "type": "object",
                            "$ref": "#/definitions/model.ErrorResponse"
                        }
                    }
                }
            }
        },
        "/users/register": {
            "post": {
                "description": "register new user with email or phone number. if auth_required param is true, this api will return auth_token instead of model.UserModel.",
                "consumes": [
                    "application/json"
                ],
                "produces": [
                    "application/json"
                ],
                "tags": [
                    "user"
                ],
                "summary": "register new user",
                "parameters": [
                    {
                        "description": "email or phone_no should not be blank.",
                        "name": "payload",
                        "in": "body",
                        "required": true,
                        "schema": {
                            "type": "object",
                            "$ref": "#/definitions/model.UserRegisterRequestModel"
                        }
                    }
                ],
                "responses": {
                    "201": {
                        "description": "Created",
                        "schema": {
                            "type": "object",
                            "$ref": "#/definitions/model.UserModel"
                        }
                    },
                    "400": {
                        "description": "Bad Request",
                        "schema": {
                            "type": "object",
                            "$ref": "#/definitions/model.ErrorResponse"
                        }
                    },
                    "404": {
                        "description": "Not Found",
                        "schema": {
                            "type": "object",
                            "$ref": "#/definitions/model.ErrorResponse"
                        }
                    },
                    "500": {
                        "description": "Internal Server Error",
                        "schema": {
                            "type": "object",
                            "$ref": "#/definitions/model.ErrorResponse"
                        }
                    }
                }
            }
        },
        "/users/register/otp": {
            "post": {
                "description": "This api will verify the OTP code while registration. If the OTP is correct, it will set confirmation is true. Note: need to get the OTP before call this api. Ref: /users/otp/send",
                "consumes": [
                    "application/json"
                ],
                "produces": [
                    "application/json"
                ],
                "tags": [
                    "user"
                ],
                "summary": "register new user with OTP",
                "parameters": [
                    {
                        "description": "Request Payload",
                        "name": "payload",
                        "in": "body",
                        "required": true,
                        "schema": {
                            "type": "object",
                            "$ref": "#/definitions/model.UserOTPRegisterRequestModel"
                        }
                    }
                ],
                "responses": {
                    "201": {
                        "description": "Created",
                        "schema": {
                            "type": "object",
                            "$ref": "#/definitions/model.UserModel"
                        }
                    },
                    "400": {
                        "description": "Bad Request",
                        "schema": {
                            "type": "object",
                            "$ref": "#/definitions/model.ErrorResponse"
                        }
                    },
                    "404": {
                        "description": "Not Found",
                        "schema": {
                            "type": "object",
                            "$ref": "#/definitions/model.ErrorResponse"
                        }
                    },
                    "500": {
                        "description": "Internal Server Error",
                        "schema": {
                            "type": "object",
                            "$ref": "#/definitions/model.ErrorResponse"
                        }
                    }
                }
            }
        },
        "/users/remove": {
            "delete": {
                "description": "disable user from the system.",
                "consumes": [
                    "application/json"
                ],
                "produces": [
                    "application/json"
                ],
                "tags": [
                    "user"
                ],
                "summary": "soft delete user",
                "parameters": [
                    {
                        "description": "Request Payload",
                        "name": "payload",
                        "in": "body",
                        "required": true,
                        "schema": {
                            "type": "object",
                            "$ref": "#/definitions/model.DeleteUserRequest"
                        }
                    }
                ],
                "responses": {
                    "202": {},
                    "400": {
                        "description": "Bad Request",
                        "schema": {
                            "type": "object",
                            "$ref": "#/definitions/model.ErrorResponse"
                        }
                    },
                    "404": {
                        "description": "Not Found",
                        "schema": {
                            "type": "object",
                            "$ref": "#/definitions/model.ErrorResponse"
                        }
                    },
                    "500": {
                        "description": "Internal Server Error",
                        "schema": {
                            "type": "object",
                            "$ref": "#/definitions/model.ErrorResponse"
                        }
                    }
                }
            }
        },
        "/users/unlink": {
            "post": {
                "description": "disable telco information for specific user.",
                "consumes": [
                    "application/json"
                ],
                "produces": [
                    "application/json"
                ],
                "tags": [
                    "user"
                ],
                "summary": "remove telco information from user",
                "parameters": [
                    {
                        "description": "Request Payload",
                        "name": "payload",
                        "in": "body",
                        "required": true,
                        "schema": {
                            "type": "object",
                            "$ref": "#/definitions/model.UnlinkRequestModel"
                        }
                    }
                ],
                "responses": {
                    "200": {},
                    "400": {
                        "description": "Bad Request",
                        "schema": {
                            "type": "object",
                            "$ref": "#/definitions/model.ErrorResponse"
                        }
                    },
                    "404": {
                        "description": "Not Found",
                        "schema": {
                            "type": "object",
                            "$ref": "#/definitions/model.ErrorResponse"
                        }
                    },
                    "500": {
                        "description": "Internal Server Error",
                        "schema": {
                            "type": "object",
                            "$ref": "#/definitions/model.ErrorResponse"
                        }
                    }
                }
            }
        },
        "/users/update": {
            "post": {
                "description": "Update existing user information",
                "consumes": [
                    "application/json"
                ],
                "produces": [
                    "application/json"
                ],
                "tags": [
                    "user"
                ],
                "summary": "update user information",
                "parameters": [
                    {
                        "description": "Request Payload",
                        "name": "payload",
                        "in": "body",
                        "required": true,
                        "schema": {
                            "type": "object",
                            "$ref": "#/definitions/model.UserUpdateRequestModel"
                        }
                    }
                ],
                "responses": {
                    "200": {},
                    "400": {
                        "description": "Bad Request",
                        "schema": {
                            "type": "object",
                            "$ref": "#/definitions/model.ErrorResponse"
                        }
                    },
                    "404": {
                        "description": "Not Found",
                        "schema": {
                            "type": "object",
                            "$ref": "#/definitions/model.ErrorResponse"
                        }
                    },
                    "500": {
                        "description": "Internal Server Error",
                        "schema": {
                            "type": "object",
                            "$ref": "#/definitions/model.ErrorResponse"
                        }
                    }
                }
            }
        },
        "/users/{user_id}/addresses": {
            "get": {
                "description": "retrieve user addresses",
                "consumes": [
                    "application/json"
                ],
                "produces": [
                    "application/json"
                ],
                "tags": [
                    "address"
                ],
                "summary": "get user addresses",
                "parameters": [
                    {
                        "type": "string",
                        "description": "User ID",
                        "name": "user_id",
                        "in": "path",
                        "required": true
                    }
                ],
                "responses": {
                    "200": {
                        "description": "OK",
                        "schema": {
                            "type": "object",
                            "$ref": "#/definitions/model.UserAddress"
                        }
                    },
                    "400": {
                        "description": "Bad Request",
                        "schema": {
                            "type": "object",
                            "$ref": "#/definitions/model.ErrorResponse"
                        }
                    },
                    "404": {
                        "description": "Not Found",
                        "schema": {
                            "type": "object",
                            "$ref": "#/definitions/model.ErrorResponse"
                        }
                    },
                    "500": {
                        "description": "Internal Server Error",
                        "schema": {
                            "type": "object",
                            "$ref": "#/definitions/model.ErrorResponse"
                        }
                    }
                }
            },
            "post": {
                "description": "create address by UserID",
                "consumes": [
                    "application/json"
                ],
                "produces": [
                    "application/json"
                ],
                "tags": [
                    "address"
                ],
                "summary": "create an address",
                "parameters": [
                    {
                        "type": "string",
                        "description": "User ID",
                        "name": "user_id",
                        "in": "path",
                        "required": true
                    },
                    {
                        "description": "Payload",
                        "name": "AddressRegisterRequestModel",
                        "in": "body",
                        "required": true,
                        "schema": {
                            "type": "object",
                            "$ref": "#/definitions/model.AddressRegisterRequestModel"
                        }
                    }
                ],
                "responses": {
                    "200": {
                        "description": "OK",
                        "schema": {
                            "type": "object",
                            "$ref": "#/definitions/model.UserAddress"
                        }
                    },
                    "400": {
                        "description": "Bad Request",
                        "schema": {
                            "type": "object",
                            "$ref": "#/definitions/model.ErrorResponse"
                        }
                    },
                    "404": {
                        "description": "Not Found",
                        "schema": {
                            "type": "object",
                            "$ref": "#/definitions/model.ErrorResponse"
                        }
                    },
                    "500": {
                        "description": "Internal Server Error",
                        "schema": {
                            "type": "object",
                            "$ref": "#/definitions/model.ErrorResponse"
                        }
                    }
                }
            }
        },
        "/users/{user_id}/addresses/{address_external_id}": {
            "put": {
                "description": "create address by UserID",
                "consumes": [
                    "application/json"
                ],
                "produces": [
                    "application/json"
                ],
                "tags": [
                    "address"
                ],
                "summary": "update user's address",
                "parameters": [
                    {
                        "type": "string",
                        "description": "User ID",
                        "name": "user_id",
                        "in": "path",
                        "required": true
                    },
                    {
                        "type": "string",
                        "description": "Address ID",
                        "name": "address_external_id",
                        "in": "path",
                        "required": true
                    },
                    {
                        "description": "Payload",
                        "name": "AddressUpdateRequestModel",
                        "in": "body",
                        "required": true,
                        "schema": {
                            "type": "object",
                            "$ref": "#/definitions/model.AddressUpdateRequestModel"
                        }
                    }
                ],
                "responses": {
                    "200": {
                        "description": "OK",
                        "schema": {
                            "type": "object",
                            "$ref": "#/definitions/model.UserAddress"
                        }
                    },
                    "400": {
                        "description": "Bad Request",
                        "schema": {
                            "type": "object",
                            "$ref": "#/definitions/model.ErrorResponse"
                        }
                    },
                    "404": {
                        "description": "Not Found",
                        "schema": {
                            "type": "object",
                            "$ref": "#/definitions/model.ErrorResponse"
                        }
                    },
                    "500": {
                        "description": "Internal Server Error",
                        "schema": {
                            "type": "object",
                            "$ref": "#/definitions/model.ErrorResponse"
                        }
                    }
                }
            }
        },
        "/users/{user_id}/extend-schema": {
            "get": {
                "description": "This will retrieve user with specific namespace value.",
                "consumes": [
                    "application/json"
                ],
                "produces": [
                    "application/json"
                ],
                "tags": [
                    "user"
                ],
                "summary": "to retrieve user with extend-schema information",
                "parameters": [
                    {
                        "type": "string",
                        "description": "User ID",
                        "name": "user_id",
                        "in": "path",
                        "required": true
                    },
                    {
                        "type": "string",
                        "description": "namespace",
                        "name": "namespace",
                        "in": "path",
                        "required": true
                    }
                ],
                "responses": {
                    "200": {
                        "description": "OK",
                        "schema": {
                            "type": "object",
                            "$ref": "#/definitions/model.ExtendedModel"
                        }
                    },
                    "400": {
                        "description": "Bad Request",
                        "schema": {
                            "type": "object",
                            "$ref": "#/definitions/model.ErrorResponse"
                        }
                    },
                    "404": {
                        "description": "Not Found",
                        "schema": {
                            "type": "object",
                            "$ref": "#/definitions/model.ErrorResponse"
                        }
                    },
                    "500": {
                        "description": "Internal Server Error",
                        "schema": {
                            "type": "object",
                            "$ref": "#/definitions/model.ErrorResponse"
                        }
                    }
                }
            },
            "post": {
                "description": "This will create extended information for user.",
                "consumes": [
                    "application/json"
                ],
                "produces": [
                    "application/json"
                ],
                "tags": [
                    "user"
                ],
                "summary": "create extend-schema information for user",
                "parameters": [
                    {
                        "description": "Request Payload",
                        "name": "payload",
                        "in": "body",
                        "required": true,
                        "schema": {
                            "type": "object"
                        }
                    },
                    {
                        "type": "string",
                        "description": "User ID",
                        "name": "user_id",
                        "in": "path",
                        "required": true
                    },
                    {
                        "type": "string",
                        "description": "namespace",
                        "name": "namespace",
                        "in": "path",
                        "required": true
                    }
                ],
                "responses": {
                    "200": {
                        "description": "OK",
                        "schema": {
                            "type": "object",
                            "$ref": "#/definitions/model.ExtendedModel"
                        }
                    },
                    "400": {
                        "description": "Bad Request",
                        "schema": {
                            "type": "object",
                            "$ref": "#/definitions/model.ErrorResponse"
                        }
                    },
                    "404": {
                        "description": "Not Found",
                        "schema": {
                            "type": "object",
                            "$ref": "#/definitions/model.ErrorResponse"
                        }
                    },
                    "500": {
                        "description": "Internal Server Error",
                        "schema": {
                            "type": "object",
                            "$ref": "#/definitions/model.ErrorResponse"
                        }
                    }
                }
            }
        },
        "/users/{user_id}/password/reset": {
            "post": {
                "description": "This api will validate the auth_token and current password with database. Then, if it is success, this api will replace old password with new password to the system.",
                "consumes": [
                    "application/json"
                ],
                "produces": [
                    "application/json"
                ],
                "tags": [
                    "user"
                ],
                "summary": "reset password",
                "parameters": [
                    {
                        "type": "string",
                        "description": "User ID",
                        "name": "user_id",
                        "in": "path",
                        "required": true
                    },
                    {
                        "description": "Request Payload",
                        "name": "payload",
                        "in": "body",
                        "required": true,
                        "schema": {
                            "type": "object",
                            "$ref": "#/definitions/model.ResetPasswordRequestModel"
                        }
                    }
                ],
                "responses": {
                    "200": {},
                    "400": {
                        "description": "Bad Request",
                        "schema": {
                            "type": "object",
                            "$ref": "#/definitions/model.ErrorResponse"
                        }
                    },
                    "404": {
                        "description": "Not Found",
                        "schema": {
                            "type": "object",
                            "$ref": "#/definitions/model.ErrorResponse"
                        }
                    },
                    "500": {
                        "description": "Internal Server Error",
                        "schema": {
                            "type": "object",
                            "$ref": "#/definitions/model.ErrorResponse"
                        }
                    }
                }
            }
        },
        "/users/{user_id}/profile": {
            "get": {
                "description": "get user by User ID",
                "consumes": [
                    "application/json"
                ],
                "produces": [
                    "application/json"
                ],
                "tags": [
                    "user"
                ],
                "summary": "retrieve user profile",
                "parameters": [
                    {
                        "type": "string",
                        "description": "User ID",
                        "name": "user_id",
                        "in": "path",
                        "required": true
                    },
                    {
                        "type": "boolean",
                        "description": "get user dervies by devices",
                        "name": "devices",
                        "in": "query"
                    },
                    {
                        "type": "boolean",
                        "description": "get deleted user",
                        "name": "deleted",
                        "in": "query"
                    }
                ],
                "responses": {
                    "200": {
                        "description": "OK",
                        "schema": {
                            "type": "object",
                            "$ref": "#/definitions/model.UserModel"
                        }
                    },
                    "400": {
                        "description": "Bad Request",
                        "schema": {
                            "type": "object",
                            "$ref": "#/definitions/model.ErrorResponse"
                        }
                    },
                    "404": {
                        "description": "Not Found",
                        "schema": {
                            "type": "object",
                            "$ref": "#/definitions/model.ErrorResponse"
                        }
                    },
                    "500": {
                        "description": "Internal Server Error",
                        "schema": {
                            "type": "object",
                            "$ref": "#/definitions/model.ErrorResponse"
                        }
                    }
                }
            }
        },
        "/users/{user_id}/verify/{channel}": {
            "post": {
                "description": "This API will validate AuthID and OTP code. And, If validation is sucess, it will set new email or phone no. to the system.",
                "consumes": [
                    "application/json"
                ],
                "produces": [
                    "application/json"
                ],
                "tags": [
                    "user"
                ],
                "summary": "change auth channel",
                "parameters": [
                    {
                        "type": "string",
                        "description": "User ID",
                        "name": "user_id",
                        "in": "path",
                        "required": true
                    },
                    {
                        "type": "string",
                        "description": "Channel",
                        "name": "channel",
                        "in": "path",
                        "required": true
                    },
                    {
                        "description": "Request Payload",
                        "name": "payload",
                        "in": "body",
                        "required": true,
                        "schema": {
                            "type": "object",
                            "$ref": "#/definitions/model.ChangeChannelRequestModel"
                        }
                    }
                ],
                "responses": {
                    "200": {},
                    "400": {
                        "description": "Bad Request",
                        "schema": {
                            "type": "object",
                            "$ref": "#/definitions/model.ErrorResponse"
                        }
                    },
                    "404": {
                        "description": "Not Found",
                        "schema": {
                            "type": "object",
                            "$ref": "#/definitions/model.ErrorResponse"
                        }
                    },
                    "500": {
                        "description": "Internal Server Error",
                        "schema": {
                            "type": "object",
                            "$ref": "#/definitions/model.ErrorResponse"
                        }
                    }
                }
            }
        },
        "/{entity}/data": {
            "post": {
                "description": "This api will return entity data which are stored in roaming-service.",
                "consumes": [
                    "application/json"
                ],
                "produces": [
                    "application/json"
                ],
                "tags": [
                    "generic query"
                ],
                "summary": "generic query to retreive entities from roaming-service",
                "parameters": [
                    {
                        "type": "string",
                        "description": "Entity Name",
                        "name": "entity",
                        "in": "path",
                        "required": true
                    },
                    {
                        "description": "Request payload",
                        "name": "payload",
                        "in": "body",
                        "required": true,
                        "schema": {
                            "type": "object",
                            "$ref": "#/definitions/model.GenericQuery"
                        }
                    }
                ],
                "responses": {
                    "200": {
                        "description": "OK",
                        "schema": {
                            "type": "array",
                            "items": {
                                "$ref": "#/definitions/model.UserModel"
                            }
                        }
                    },
                    "400": {
                        "description": "Bad Request",
                        "schema": {
                            "type": "object",
                            "$ref": "#/definitions/model.ErrorResponse"
                        }
                    },
                    "404": {
                        "description": "Not Found",
                        "schema": {
                            "type": "object",
                            "$ref": "#/definitions/model.ErrorResponse"
                        }
                    },
                    "500": {
                        "description": "Internal Server Error",
                        "schema": {
                            "type": "object",
                            "$ref": "#/definitions/model.ErrorResponse"
                        }
                    }
                }
            }
        }
    },
    "definitions": {
        "model.AddressRegisterRequestModel": {
            "type": "object",
            "properties": {
                "address_external_id": {
                    "type": "string"
                },
                "address_line_1": {
                    "type": "string"
                },
                "address_line_2": {
                    "type": "string"
                },
                "address_line_3": {
                    "type": "string"
                },
                "city": {
                    "type": "string"
                },
                "country": {
                    "type": "string"
                },
                "postal_code": {
                    "type": "string"
                },
                "state": {
                    "type": "string"
                },
                "user_id": {
                    "type": "string"
                }
            }
        },
        "model.AddressUpdateRequestModel": {
            "type": "object",
            "properties": {
                "address_external_id": {
                    "type": "string"
                },
                "address_line_1": {
                    "type": "string"
                },
                "address_line_2": {
                    "type": "string"
                },
                "address_line_3": {
                    "type": "string"
                },
                "city": {
                    "type": "string"
                },
                "country": {
                    "type": "string"
                },
                "postal_code": {
                    "type": "string"
                },
                "state": {
                    "type": "string"
                },
                "updated_at": {
                    "type": "integer"
                },
                "user_id": {
                    "type": "string"
                }
            }
        },
        "model.ChangeChannelRequestModel": {
            "type": "object",
            "properties": {
                "auth_id": {
                    "type": "string"
                },
                "device": {
                    "type": "object",
                    "$ref": "#/definitions/model.UserDevice"
                },
                "new_email": {
                    "type": "string"
                },
                "new_isd_code": {
                    "type": "string"
                },
                "new_phone_no": {
                    "type": "string"
                },
                "old_email": {
                    "type": "string"
                },
                "old_isd_code": {
                    "type": "string"
                },
                "old_phone_no": {
                    "type": "string"
                },
                "otp_code": {
                    "type": "string"
                },
                "override": {
                    "type": "boolean"
                }
            }
        },
        "model.DeleteUserRequest": {
            "type": "object",
            "properties": {
                "comment": {
                    "type": "string"
                },
                "deleted_by": {
                    "type": "string"
                },
                "email": {
                    "type": "string"
                },
                "isd_code": {
                    "type": "string"
                },
                "phone_no": {
                    "type": "string"
                }
            }
        },
        "model.ErrorResponse": {
            "type": "object",
            "properties": {
                "code": {
                    "type": "integer",
                    "example": 400
                },
                "message": {
                    "type": "string",
                    "example": "status bad request"
                },
                "object": {
                    "type": "string",
                    "example": "error"
                }
            }
        },
        "model.ExtendedModel": {
            "type": "object",
            "properties": {
                "created_at": {
                    "type": "integer"
                },
                "data": {
                    "type": "object"
                },
                "updated_at": {
                    "type": "integer"
                },
                "user_id": {
                    "type": "string"
                }
            }
        },
        "model.ForgotPasswordRequestModel": {
            "type": "object",
            "properties": {
                "auth_id": {
                    "type": "string"
                },
                "email": {
                    "type": "string"
                },
                "isd_code": {
                    "type": "string"
                },
                "new_password": {
                    "type": "string"
                },
                "otp_code": {
                    "type": "string"
                },
                "phone_no": {
                    "type": "string"
                },
                "user_id": {
                    "type": "string"
                }
            }
        },
        "model.GenericQuery": {
            "type": "object",
            "properties": {
                "entity": {
                    "type": "string"
                },
                "next_cur": {
                    "type": "string"
                },
                "order_by": {
                    "type": "string"
                },
                "page_size": {
                    "type": "integer"
                },
                "query": {
                    "type": "array",
                    "items": {
                        "$ref": "#/definitions/model.Query"
                    }
                }
            }
        },
        "model.GetOtpResponseModel": {
            "type": "object",
            "properties": {
                "otp_code": {
                    "type": "string"
                }
            }
        },
        "model.GuestCreateRequestModel": {
            "type": "object",
            "properties": {
                "device_id": {
                    "type": "string"
                },
                "device_type": {
                    "type": "string"
                },
                "login_duration": {
                    "type": "integer"
                }
            }
        },
        "model.InvalidateTokenRequestModel": {
            "type": "object",
            "properties": {
                "auth_token": {
                    "type": "string"
                },
                "device_id": {
                    "type": "string"
                }
            }
        },
        "model.MigrateUserModel": {
            "type": "object",
            "properties": {
                "login_duration": {
                    "type": "integer"
                },
                "telco_info": {
                    "type": "array",
                    "items": {
                        "$ref": "#/definitions/model.TelcoInfo"
                    }
                },
                "user": {
                    "type": "object",
                    "$ref": "#/definitions/model.MigrateUserReq"
                },
                "user_devices": {
                    "type": "array",
                    "items": {
                        "$ref": "#/definitions/model.UserDevice"
                    }
                }
            }
        },
        "model.MigrateUserReq": {
            "type": "object",
            "properties": {
                "address_line_1": {
                    "type": "string"
                },
                "address_line_2": {
                    "type": "string"
                },
                "address_line_3": {
                    "type": "string"
                },
                "auth_required": {
                    "type": "boolean"
                },
                "city": {
                    "type": "string"
                },
                "country": {
                    "type": "string"
                },
                "device": {
                    "type": "object",
                    "$ref": "#/definitions/model.UserDevice"
                },
                "dob": {
                    "type": "string"
                },
                "email": {
                    "type": "string"
                },
                "email_confirmed": {
                    "type": "boolean"
                },
                "external_id": {
                    "type": "string"
                },
                "first_name": {
                    "type": "string"
                },
                "image_url": {
                    "type": "string"
                },
                "isd_code": {
                    "type": "string"
                },
                "last_name": {
                    "type": "string"
                },
                "login_duration": {
                    "type": "integer"
                },
                "password": {
                    "type": "string"
                },
                "phone_confirmed": {
                    "type": "boolean"
                },
                "phone_no": {
                    "type": "string"
                },
                "postal_code": {
                    "type": "string"
                },
                "security_questions": {
                    "type": "array",
                    "items": {
                        "$ref": "#/definitions/model.SecurityQuestion"
                    }
                },
                "source": {
                    "type": "string"
                },
                "state": {
                    "type": "string"
                }
            }
        },
        "model.OtpAuthenticationModel": {
            "type": "object",
            "properties": {
                "activity": {
                    "type": "string"
                },
                "auth_id": {
                    "type": "string"
                },
                "auth_mode": {
                    "type": "string"
                },
                "created_at": {
                    "type": "integer"
                },
                "device_id": {
                    "type": "string"
                },
                "email": {
                    "type": "string"
                },
                "expiry_time": {
                    "type": "integer"
                },
                "id": {
                    "type": "string"
                },
                "isd_code": {
                    "type": "string"
                },
                "otp_code": {
                    "type": "string"
                },
                "params": {
                    "type": "object"
                },
                "phone_no": {
                    "type": "string"
                },
                "raw_id": {
                    "type": "string"
                },
                "request_type": {
                    "type": "string"
                },
                "security_ans": {
                    "type": "string"
                },
                "security_qn": {
                    "type": "string"
                },
                "status": {
                    "type": "string"
                },
                "updated_at": {
                    "type": "integer"
                },
                "user_id": {
                    "type": "string"
                }
            }
        },
        "model.OtpRequestModel": {
            "type": "object",
            "properties": {
                "auth_mode": {
                    "type": "string"
                },
                "device_id": {
                    "type": "string"
                },
                "email": {
                    "type": "string"
                },
                "isd_code": {
                    "type": "string"
                },
                "otp_duration": {
                    "type": "integer"
                },
                "phone_no": {
                    "type": "string"
                },
                "request_type": {
                    "type": "string"
                }
            }
        },
        "model.OtpResponseModel": {
            "type": "object",
            "properties": {
                "auth_id": {
                    "type": "string"
                },
                "auth_token": {
                    "type": "string"
                },
                "security_qn": {
                    "type": "string"
                }
            }
        },
        "model.OtpValidationModel": {
            "type": "object",
            "properties": {
                "auth_id": {
                    "type": "string"
                },
                "device": {
                    "type": "object",
                    "$ref": "#/definitions/model.UserDevice"
                },
                "login_duration": {
                    "type": "integer"
                },
                "login_mode": {
                    "type": "string"
                },
                "otp_code": {
                    "type": "string"
                },
                "security_ans": {
                    "type": "string"
                }
            }
        },
        "model.Query": {
            "type": "object",
            "properties": {
                "k": {
                    "type": "string"
                },
                "o": {
                    "type": "string"
                },
                "v": {
                    "type": "object"
                }
            }
        },
        "model.RefreshTokenRequestModel": {
            "type": "object",
            "properties": {
                "auth_token": {
                    "type": "string"
                },
                "device_id": {
                    "type": "string"
                },
                "extension_duration": {
                    "type": "integer"
                },
                "login_mode": {
                    "type": "string"
                }
            }
        },
        "model.ResetPasswordRequestModel": {
            "type": "object",
            "properties": {
                "auth_token": {
                    "type": "string"
                },
                "current_password": {
                    "type": "string"
                },
                "new_password": {
                    "type": "string"
                }
            }
        },
        "model.SecurityQuestion": {
            "type": "object",
            "properties": {
                "answer": {
                    "type": "string"
                },
                "question": {
                    "type": "string"
                }
            }
        },
        "model.TelcoInfo": {
            "type": "object",
            "properties": {
                "activation_date": {
                    "type": "string"
                },
                "billing_email": {
                    "type": "string"
                },
                "circles_info": {
                    "type": "object"
                },
                "created_at": {
                    "type": "integer"
                },
                "creation_date": {
                    "type": "string"
                },
                "customer_name": {
                    "type": "string"
                },
                "id": {
                    "type": "string"
                },
                "identifier_info": {
                    "type": "object"
                },
                "isd_code": {
                    "type": "string"
                },
                "phone_no": {
                    "type": "string"
                },
                "raw_id": {
                    "type": "string"
                },
                "resigtered_email": {
                    "type": "string"
                },
                "status": {
                    "type": "string"
                },
                "updated_at": {
                    "type": "integer"
                },
                "user_id": {
                    "type": "string"
                }
            }
        },
        "model.UnlinkRequestModel": {
            "type": "object",
            "properties": {
                "isd_code": {
                    "type": "string"
                },
                "phone_no": {
                    "type": "string"
                },
                "user_id": {
                    "type": "string"
                }
            }
        },
        "model.UserAddress": {
            "type": "object",
            "properties": {
                "address_external_id": {
                    "type": "string"
                },
                "address_line_1": {
                    "type": "string"
                },
                "address_line_2": {
                    "type": "string"
                },
                "address_line_3": {
                    "type": "string"
                },
                "city": {
                    "type": "string"
                },
                "country": {
                    "type": "string"
                },
                "created_at": {
                    "type": "integer"
                },
                "id": {
                    "type": "string"
                },
                "postal_code": {
                    "type": "string"
                },
                "raw_id": {
                    "type": "string"
                },
                "state": {
                    "type": "string"
                },
                "updated_at": {
                    "type": "integer"
                },
                "user_id": {
                    "type": "string"
                }
            }
        },
        "model.UserDevice": {
            "type": "object",
            "properties": {
                "created_at": {
                    "type": "integer"
                },
                "device_id": {
                    "type": "string"
                },
                "device_os": {
                    "type": "string"
                },
                "device_token": {
                    "type": "string"
                },
                "device_type": {
                    "type": "string"
                },
                "id": {
                    "type": "string"
                },
                "imei": {
                    "type": "string"
                },
                "mac_id": {
                    "type": "string"
                },
                "status": {
                    "type": "string"
                },
                "updated_at": {
                    "type": "integer"
                },
                "user_agent": {
                    "type": "string"
                },
                "user_id": {
                    "type": "string"
                }
            }
        },
        "model.UserLoginRequestModel": {
            "type": "object",
            "properties": {
                "device": {
                    "type": "object",
                    "$ref": "#/definitions/model.UserDevice"
                },
                "email": {
                    "type": "string"
                },
                "isd_code": {
                    "type": "string"
                },
                "login_duration": {
                    "type": "integer"
                },
                "login_mode": {
                    "type": "string"
                },
                "password": {
                    "type": "string"
                },
                "phone_no": {
                    "type": "string"
                },
                "user_id": {
                    "type": "string"
                }
            }
        },
        "model.UserLoginResponseModel": {
            "type": "object",
            "properties": {
                "auth_token": {
                    "type": "string"
                },
                "type": {
                    "type": "string"
                }
            }
        },
        "model.UserModel": {
            "type": "object",
            "properties": {
                "address_line_1": {
                    "type": "string"
                },
                "address_line_2": {
                    "type": "string"
                },
                "address_line_3": {
                    "type": "string"
                },
                "circles_accounts": {
                    "type": "object"
                },
                "city": {
                    "type": "string"
                },
                "country": {
                    "type": "string"
                },
                "created_at": {
                    "type": "integer"
                },
                "deleted_at": {
                    "type": "integer"
                },
                "dob": {
                    "type": "string"
                },
                "email": {
                    "type": "string"
                },
                "email_confirmed": {
                    "type": "boolean"
                },
                "external_id": {
                    "type": "string"
                },
                "first_name": {
                    "type": "string"
                },
                "id": {
                    "type": "string"
                },
                "image_url": {
                    "type": "string"
                },
                "isd_code": {
                    "type": "string"
                },
                "last_name": {
                    "type": "string"
                },
                "password": {
                    "type": "string"
                },
                "phone_confirmed": {
                    "type": "boolean"
                },
                "phone_no": {
                    "type": "string"
                },
                "postal_code": {
                    "type": "string"
                },
                "raw_id": {
                    "type": "string"
                },
                "security_questions": {
                    "type": "array",
                    "items": {
                        "$ref": "#/definitions/model.SecurityQuestion"
                    }
                },
                "source": {
                    "type": "string"
                },
                "state": {
                    "type": "string"
                },
                "telco_user": {
                    "type": "boolean"
                },
                "updated_at": {
                    "type": "integer"
                }
            }
        },
        "model.UserOTPRegisterRequestModel": {
            "type": "object",
            "properties": {
                "address_line_1": {
                    "type": "string"
                },
                "address_line_2": {
                    "type": "string"
                },
                "address_line_3": {
                    "type": "string"
                },
                "auth_id": {
                    "type": "string"
                },
                "auth_required": {
                    "type": "boolean"
                },
                "city": {
                    "type": "string"
                },
                "country": {
                    "type": "string"
                },
                "device": {
                    "type": "object",
                    "$ref": "#/definitions/model.UserDevice"
                },
                "dob": {
                    "type": "string"
                },
                "email": {
                    "type": "string"
                },
                "external_id": {
                    "type": "string"
                },
                "first_name": {
                    "type": "string"
                },
                "image_url": {
                    "type": "string"
                },
                "isd_code": {
                    "type": "string"
                },
                "last_name": {
                    "type": "string"
                },
                "login_duration": {
                    "type": "integer"
                },
                "otp_code": {
                    "type": "string"
                },
                "override": {
                    "type": "boolean"
                },
                "password": {
                    "type": "string"
                },
                "phone_no": {
                    "type": "string"
                },
                "postal_code": {
                    "type": "string"
                },
                "security_questions": {
                    "type": "array",
                    "items": {
                        "$ref": "#/definitions/model.SecurityQuestion"
                    }
                },
                "source": {
                    "type": "string"
                },
                "state": {
                    "type": "string"
                }
            }
        },
        "model.UserRegisterRequestModel": {
            "type": "object",
            "properties": {
                "address_line_1": {
                    "type": "string"
                },
                "address_line_2": {
                    "type": "string"
                },
                "address_line_3": {
                    "type": "string"
                },
                "auth_required": {
                    "type": "boolean"
                },
                "city": {
                    "type": "string"
                },
                "country": {
                    "type": "string"
                },
                "device": {
                    "type": "object",
                    "$ref": "#/definitions/model.UserDevice"
                },
                "dob": {
                    "type": "string"
                },
                "email": {
                    "type": "string"
                },
                "external_id": {
                    "type": "string"
                },
                "first_name": {
                    "type": "string"
                },
                "image_url": {
                    "type": "string"
                },
                "isd_code": {
                    "type": "string"
                },
                "last_name": {
                    "type": "string"
                },
                "login_duration": {
                    "type": "integer"
                },
                "password": {
                    "type": "string"
                },
                "phone_no": {
                    "type": "string"
                },
                "postal_code": {
                    "type": "string"
                },
                "security_questions": {
                    "type": "array",
                    "items": {
                        "$ref": "#/definitions/model.SecurityQuestion"
                    }
                },
                "source": {
                    "type": "string"
                },
                "state": {
                    "type": "string"
                }
            }
        },
        "model.UserUpdateRequestModel": {
            "type": "object",
            "properties": {
                "address_line_1": {
                    "type": "string"
                },
                "address_line_2": {
                    "type": "string"
                },
                "address_line_3": {
                    "type": "string"
                },
                "city": {
                    "type": "string"
                },
                "country": {
                    "type": "string"
                },
                "dob": {
                    "type": "string"
                },
                "email": {
                    "type": "string"
                },
                "emailConfirmed": {
                    "type": "boolean"
                },
                "external_id": {
                    "type": "string"
                },
                "first_name": {
                    "type": "string"
                },
                "image_url": {
                    "type": "string"
                },
                "isd_code": {
                    "type": "string"
                },
                "last_name": {
                    "type": "string"
                },
                "phoneConfirmed": {
                    "type": "boolean"
                },
                "phone_no": {
                    "type": "string"
                },
                "postal_code": {
                    "type": "string"
                },
                "security_questions": {
                    "type": "array",
                    "items": {
                        "$ref": "#/definitions/model.SecurityQuestion"
                    }
                },
                "state": {
                    "type": "string"
                },
                "updated_at": {
                    "type": "integer"
                }
            }
        },
        "model.ValidateTokenRequest": {
            "type": "object",
            "properties": {
                "auth_token": {
                    "type": "string"
                },
                "device_id": {
                    "type": "string"
                }
            }
        },
        "model.VerifyChannelRequestModel": {
            "type": "object",
            "properties": {
                "auth_id": {
                    "type": "string"
                },
                "device": {
                    "type": "object",
                    "$ref": "#/definitions/model.UserDevice"
                },
                "otp_code": {
                    "type": "string"
                }
            }
        }
    }
}